<?xml version="1.0" encoding="UTF-8" standalone="no"?>
<!-- Created with Inkscape (http://www.inkscape.org/) -->

<svg
   xmlns:dc="http://purl.org/dc/elements/1.1/"
   xmlns:cc="http://creativecommons.org/ns#"
   xmlns:rdf="http://www.w3.org/1999/02/22-rdf-syntax-ns#"
   xmlns:svg="http://www.w3.org/2000/svg"
   xmlns="http://www.w3.org/2000/svg"
   xmlns:sodipodi="http://sodipodi.sourceforge.net/DTD/sodipodi-0.dtd"
   xmlns:inkscape="http://www.inkscape.org/namespaces/inkscape"
   id="svg2"
   sodipodi:docname="arrow-left.svg"
   viewBox="0 0 300.64289 95.272501"
   sodipodi:version="0.32"
   version="1.0"
   inkscape:output_extension="org.inkscape.output.svg.inkscape"
   inkscape:version="0.92.3 (2405546, 2018-03-11)"
   width="300.64288"
   height="95.272499"
   inkscape:export-filename="/home/urs/presentation/dinacon 2018/public-money-public-code/res/arrow-left.png"
   inkscape:export-xdpi="600"
   inkscape:export-ydpi="600">
  <defs
     id="defs4">
    <linearGradient
       id="linearGradient5828"
       y2="471.73001"
       gradientUnits="userSpaceOnUse"
       x2="82.379997"
       y1="460.75"
       x1="141.60001"
       inkscape:collect="always"
       gradientTransform="rotate(-180,106.504,525.8958)">
      <stop
         id="stop3184"
         style="stop-color:#ffffff"
         offset="0" />
      <stop
         id="stop3186"
         style="stop-color:#ffffff;stop-opacity:0"
         offset="1" />
    </linearGradient>
  </defs>
  <sodipodi:namedview
     id="base"
     fit-margin-left="1"
     inkscape:zoom="2.1798888"
     borderopacity="1.0"
     inkscape:current-layer="g4004"
     inkscape:cx="79.096978"
     inkscape:cy="-10.656214"
     inkscape:window-maximized="1"
     showgrid="false"
     fit-margin-right="1"
     units="in"
     inkscape:document-units="in"
     bordercolor="#666666"
     inkscape:window-x="0"
     guidetolerance="10"
     objecttolerance="10"
     inkscape:window-y="27"
     fit-margin-bottom="1"
     inkscape:window-width="1920"
     inkscape:pageopacity="0.0"
     inkscape:pageshadow="2"
     pagecolor="#ffffff"
     gridtolerance="10000"
     inkscape:window-height="1016"
     fit-margin-top="1" />
  <g
     id="layer1"
     inkscape:label="Layer 1"
     inkscape:groupmode="layer"
     transform="translate(-143.27123,-281.91875)">
    <g
       id="g4004"
       transform="rotate(90,297.389,520.45065)">
      <path
         id="rect2568"
         d="m 82.118002,380.81163 0,203.22 -18.102,-0.1213 21.025,43.535 21.023998,43.535 21.457,-43.231 21.47,-43.252 -18.94,-0.1416 v -203.54 z"
         sodipodi:nodetypes="cccccccccc"
         style="fill:#67848f;fill-opacity:0.44706002;fill-rule:evenodd;stroke:#a3b0b5;stroke-width:5.18400002;stroke-linejoin:round;stroke-miterlimit:4;stroke-dasharray:none"
         inkscape:connector-curvature="0" />
      <path
         id="path5832"
         d="m 145.539,586.32163 -17.469,-0.008 0,-203.49 H 84.132002 l -0.1875,203.28 -16.594,0.0625 38.749998,80.312 z"
         sodipodi:nodetypes="cccccccc"
         style="fill:none;stroke:#edf3f3;stroke-width:2.5"
         inkscape:connector-curvature="0" />
      <path
         id="path5820"
         sodipodi:nodetypes="cccccccc"
         style="fill:url(#linearGradient5828);fill-rule:evenodd"
         inkscape:connector-curvature="0"
         d="m 85.368002,384.01163 -0.20586,203.36 -15.791,0.0617 36.741998,76.204 37.415,-76.076 -16.722,-0.004 0.0229,-203.47 z" />
    </g>
  </g>
  <metadata
     id="metadata812">
    <rdf:RDF>
      <cc:Work>
        <dc:format>image/svg+xml</dc:format>
        <dc:type
           rdf:resource="http://purl.org/dc/dcmitype/StillImage" />
        <cc:license
           rdf:resource="http://creativecommons.org/publicdomain/zero/1.0/" />
        <dc:publisher>
          <cc:Agent
             rdf:about="http://openclipart.org/">
            <dc:title>Openclipart</dc:title>
          </cc:Agent>
        </dc:publisher>
        <dc:title />
        <dc:date>2012-02-09T11:47:10</dc:date>
        <dc:description>Glossy white/gray arrow (pointing up)</dc:description>
        <dc:source>https://openclipart.org/detail/168037/glossy-white-arrow-by-tdhoward75</dc:source>
        <dc:creator>
          <cc:Agent>
            <dc:title>tdhoward75</dc:title>
          </cc:Agent>
        </dc:creator>
        <dc:subject>
          <rdf:Bag>
            <rdf:li>arrow</rdf:li>
            <rdf:li>arrows</rdf:li>
            <rdf:li>glass</rdf:li>
            <rdf:li>glossy</rdf:li>
            <rdf:li>gray</rdf:li>
            <rdf:li>grey</rdf:li>
            <rdf:li>shiny</rdf:li>
            <rdf:li>up</rdf:li>
            <rdf:li>white</rdf:li>
          </rdf:Bag>
        </dc:subject>
      </cc:Work>
      <cc:License
         rdf:about="http://creativecommons.org/publicdomain/zero/1.0/">
        <cc:permits
           rdf:resource="http://creativecommons.org/ns#Reproduction" />
        <cc:permits
           rdf:resource="http://creativecommons.org/ns#Distribution" />
        <cc:permits
           rdf:resource="http://creativecommons.org/ns#DerivativeWorks" />
      </cc:License>
    </rdf:RDF>
  </metadata>
</svg>
